id,name,model_id:id,group_id:id,perm_read,perm_write,perm_create,perm_unlink
access_dms_vehicle_manager,access_dms_vehicle_manager,model_dms_vehicle,sales_team.group_sale_manager,1,1,1,0
access_dms_vehicle,access_dms_vehicle,model_dms_vehicle,base.group_user,1,0,0,0
access_dms_vehiclemodel,access_dms_vehiclemodel,model_dms_vehiclemodel,base.group_user,1,0,0,0
access_dms_modelyear,access_dms_modelyear,model_dms_modelyear,base.group_user,1,0,0,0
access_dms_vehiclemake,access_dms_vehiclemake,model_dms_vehiclemake,base.group_user,1,0,0,0
